Estatística Espacial
…
#Lendo o arquivo de dados
#Registro das vendas vendas do produto de interesse
base = read_csv("hanseniase.csv")

## Parsed with column specification:
## cols(
##   Municipio = col_character(),
##   Casos = col_integer(),
##   ID_OBJETO = col_integer()
## )

#Visualinado a base de dados
base

## # A tibble: 92 x 3
##    Municipio          Casos ID_OBJETO
##    <chr>              <int>     <int>
##  1 Angra dos Reis        81        93
##  2 Aperibe                4        94
##  3 Araruama              65        95
##  4 Areal                  2        96
##  5 Armacao dos Buzios    14        97
##  6 Arraial do Cabo        8        98
##  7 Barra do Pirai        14        99
##  8 Barra Mansa           14       100
##  9 Belford Roxo         105       101
## 10 Bom Jardim             4       102
## # ... with 82 more rows
…
